	<robot name="jarvis">

		<!-- * * * Link Definitions * * * -->

	 	<link name="base_link">
			<visual>
			    <origin xyz="0 0 -0.03" rpy="0 0 0"/>
				<geometry>
					<!-- <box size="0.40 0.40 0.23"/> -->
					<box size="0.40 0.40 0.20"/>
				</geometry>
				<material name="Cyan1">
		       		<color rgba="0 0.9 0.9 1.0"/>
		     	</material>
			</visual>	
		</link>

	  	<link name="torso_link">
			<visual>
				<origin xyz="0 0 0.0" rpy="0 0 0"/>
				<geometry>
					<cylinder radius="0.03" length="0.70"/>
				</geometry>
		     	<material name="Yellow2">
					<color rgba="0.8 0.8 0 1.0"/>
				</material>
		   </visual>
		</link>
		<!-- 
		<link name="head_pan_link">
			<visual>
				<origin xyz="0 0 0.0225" rpy="0 0 0"/>
				<geometry>
					<box size="0.05 0.045 0.045"/>
				</geometry>
		     	<material name="Green1">
					<color rgba="0 1 0 1.0"/>
				</material>
		   </visual>
		</link>
		
		<link name="head_tilt_link">
			<visual>
				<origin xyz="0 0 0.02" rpy="0 0 0"/>
				<geometry>
					<box size="0.03 0.038 0.04"/>
				</geometry>
		     	<material name="Green2">
					<color rgba="0.1 0.8 0 1.0"/>
				</material>
		   </visual>
		</link> -->
		
<!-- 		<link name="neck_link">
			<visual>
				<origin xyz="0 0 0.021" rpy="0 0 0"/>
				<geometry>
					<box size="0.03 0.05 0.042"/>
				</geometry>
		     	<material name="Green3">
					<color rgba="0.1 0.5 0.1 1.0"/>
				</material>
		   </visual>
		</link>
		
		<link name="head_link">
			<visual>
				<origin xyz="0 0 0.025" rpy="0 0 0"/>
				<geometry>
					<box size="0.03 0.07 0.11"/>
				</geometry>
		     	<material name="Grey1">
					<color rgba="0.9 0.9 0.9 1.0"/>
				</material>
		   </visual>
		</link> -->
		

		




		<link name="left_shoulder_forward_link">
			<visual>
				<origin xyz="0 0 0" rpy="0 0 0"/>
				<geometry>
					<box size="0.03 0.15375 0.03"/>
				</geometry>
		     	<material name="Blue1">
					<color rgba="0 0 0.9 1.0"/>
				</material>
		   </visual>
		</link>
		<link name="left_shoulder_up_link">
			<visual>
				<origin xyz="0 0 0" rpy="1.57 0 0"/>
				<geometry>
					<box size="0.03 0.06 0.03"/>
				</geometry>
		     	<material name="Blue2">
					<color rgba="0 0 0.7 1.0"/>
				</material>
		   </visual>
		</link>
		<link name="left_upper_arm_link">
			<visual>
				<origin xyz="0 0 -0.02" rpy="0 0 0"/>
				<geometry>
					<cylinder radius="0.032" length="0.04"/>
				</geometry>
		     	<material name="Grey1">
					<color rgba="0.9 0.9 0.9 1.0"/>
				</material>
		   </visual>
		</link>

		<link name="left_lower_arm_link">
			<visual>
				<origin xyz="0 0 -0.0875" rpy="0 0 0"/>
				<geometry>
					<cylinder radius="0.032" length="0.175"/>
				</geometry>
		     	<material name="Grey1">
					<color rgba="0.9 0.9 0.9 1.0"/>
				</material>
		   </visual>
		</link>


		<link name="left_lower_arm2_link">
			<visual>
				<origin xyz="0 0 -0.0825" rpy="0 0 0"/>
				<geometry>
					<cylinder radius="0.032" length="0.165"/>
				</geometry>
		     	<material name="Grey1">
					<color rgba="0.9 0.9 0.9 1.0"/>
				</material>
		   </visual>
		</link>


		<link name="left_hand_link">
			<visual>
				<origin xyz="0 0 -0.08" rpy="0 0 0"/>
				<geometry>
					<box size="0.07 0.135 0.16"/>
				</geometry>
		     	<material name="Grey1">
					<color rgba="0.7 0.7 0.7 1.0"/>
				</material>
		   </visual>
		</link>
		<link name="left_hand_dummy1">
			<visual>
				<origin xyz="0 0 -0.0005" rpy="0 0 0"/>
				<geometry>
					<box size="0.0001 0.0001 0.001"/>
				</geometry>
		     	<material name="Grey1">
					<color rgba="0.7 0.7 0.7 1.0"/>
				</material>
		   </visual>
		</link>
		<link name="left_hand_dummy2">
			<visual>
				<origin xyz="0 0 -0.0005" rpy="0 0 0"/>
				<geometry>
					<box size="0.0001 0.0001 0.001"/>
				</geometry>
		     	<material name="Grey1">
					<color rgba="0.7 0.7 0.7 1.0"/>
				</material>
		   </visual>
		</link>
		
		
















		<link name="right_shoulder_forward_link">
			<visual>
				<origin xyz="0 0 0" rpy="0 0 0"/>
				<geometry>
					<box size="0.03 0.15375 0.03"/>
				</geometry>
		     	<material name="Blue1">
					<color rgba="0 0 0.9 1.0"/>
				</material>
		   </visual>
		</link>
		<link name="right_shoulder_up_link">
			<visual>
				<origin xyz="0 0 0" rpy="1.57 0 0"/>
				<geometry>
					<box size="0.03 0.06 0.03"/>
				</geometry>
		     	<material name="Blue2">
					<color rgba="0 0 0.7 1.0"/>
				</material>
		   </visual>
		</link>
		<link name="right_upper_arm_link">
			<visual>
				<origin xyz="0 0 -0.02" rpy="0 0 0"/>
				<geometry>
					<cylinder radius="0.032" length="0.04"/>
				</geometry>
		     	<material name="Grey1">
					<color rgba="0.9 0.9 0.9 1.0"/>
				</material>
		   </visual>
		</link>

		<link name="right_lower_arm_link">
			<visual>
				<origin xyz="0 0 -0.0875" rpy="0 0 0"/>
				<geometry>
					<cylinder radius="0.032" length="0.175"/>
				</geometry>
		     	<material name="Grey1">
					<color rgba="0.9 0.9 0.9 1.0"/>
				</material>
		   </visual>
		</link>


		<link name="right_lower_arm2_link">
			<visual>
				<origin xyz="0 0 -0.0825" rpy="0 0 0"/>
				<geometry>
					<cylinder radius="0.032" length="0.165"/>
				</geometry>
		     	<material name="Grey1">
					<color rgba="0.9 0.9 0.9 1.0"/>
				</material>
		   </visual>
		</link>


<!-- 		<link name="right_hand_link">
			<visual>
				<origin xyz="0 0 -0.13" rpy="0 0 0"/>
				<geometry>
					<box size="0.07 0.135 0.26"/>
				</geometry>
		     	<material name="Grey1">
					<color rgba="0.7 0.7 0.7 1.0"/>
				</material>
		   </visual>
		</link> -->
		<link name="right_hand_link">
			<visual>
				<origin xyz="0 0 -0.055" rpy="0 0 0"/>
				<geometry>
					<box size="0.05 0.07 0.11"/>
				</geometry>
		     	<material name="Grey1">
					<color rgba="0.7 0.7 0.7 1.0"/>
				</material>
		   </visual>
		</link>

		<link name="right_hand_dummy1">
			<visual>
				<origin xyz="0 0 -0.0005" rpy="0 0 0"/>
				<geometry>
					<box size="0.0001 0.0001 0.001"/>
				</geometry>
		     	<material name="Grey1">
					<color rgba="0.7 0.7 0.7 1.0"/>
				</material>
		   </visual>
		</link>
		<link name="right_hand_dummy2">
			<visual>
				<origin xyz="0 0 -0.0005" rpy="0 0 0"/>
				<geometry>
					<box size="0.0001 0.0001 0.001"/>
				</geometry>
		     	<material name="Grey1">
					<color rgba="0.7 0.7 0.7 1.0"/>
				</material>
		   </visual>
		</link>


		<link name="right_gripper_l_link">
			<visual>
				<origin xyz="0 0.005 -0.08" rpy="-0.3 0 0"/>
				<geometry>
					<box size="0.05 0.03 0.16"/>
				</geometry>
		     	<material name="Grey1">
					<color rgba="0.7 0.7 0.7 1.0"/>
				</material>
		   </visual>
		</link>

		<link name="right_gripper_r_link">
			<visual>
				<origin xyz="0 -0.005 -0.08" rpy="0.3 0 0"/>
				<geometry>
					<box size="0.05 0.03 0.16"/>
				</geometry>
		     	<material name="Grey1">
					<color rgba="0.7 0.7 0.7 1.0"/>
				</material>
		   </visual>
		</link>
		


		
		<!-- * * * Joint Definitions * * * -->
		<joint name="right_upper_arm_joint" type="revolute">
	    	<parent link="right_shoulder_up_link"/>
	    	<child link="right_upper_arm_link"/>
	    	<origin xyz="0 0 -0.03" rpy="0 0 0"/>
	    	<limit lower="-1.57" upper="1.57" effort="10" velocity="3"/>
	        <axis xyz="0 0 1"/>
		</joint>
	 	<joint name="right_elbow_joint" type="revolute">
	    	<parent link="right_upper_arm_link"/>
	    	<child link="right_lower_arm_link"/>
	    	<origin xyz="0 0 -0.04" rpy="0 0 0"/>
	    	
	       	<limit lower="-1.57" upper="1.57" effort="10" velocity="3"/>
	        <axis xyz="0 1 0"/>
		</joint>	

	 	<joint name="right_wrist_joint" type="revolute">
	    	<parent link="right_lower_arm_link"/>
	    	<child link="right_lower_arm2_link"/>
	    	<origin xyz="-0.000 0 -0.175" rpy="0 0 0"/>
	    	
	       	<limit lower="-1.57" upper="1.57" effort="10" velocity="3"/>
	        <axis xyz="0 1 0"/>
		</joint>

	 	<joint name="right_wrist_joint2" type="revolute">
	    	<parent link="right_lower_arm2_link"/>
	    	<child link="right_hand_link"/>
	    	<origin xyz="0 0 -0.165" rpy="0 0 0"/>
	       	<limit lower="-1.57" upper="1.57" effort="10" velocity="3"/>
	        <axis xyz="0 1 0"/>
		</joint>

		<joint name="right_hand_dummy1" type="revolute">
	    	<parent link="right_hand_link"/>
	    	<child link="right_hand_dummy1"/>
	    	<origin xyz="0 0 -0.11" rpy="0 0 0"/>
	        <axis xyz="1 0 0"/>
	        <limit lower="-1.57" upper="1.57" effort="10" velocity="3"/>
		</joint>


		<joint name="right_hand_dummy2" type="revolute">
	    	<parent link="right_hand_dummy1"/>
	    	<child link="right_hand_dummy2"/>
	    	<origin xyz="0 0 -0.001" rpy="0 0 0"/>
	        <axis xyz="0 1 0"/>
	        <limit lower="-1.57" upper="1.57" effort="10" velocity="3"/>
		</joint>


		<joint name="right_grip_l" type="revolute">
	    	<parent link="right_hand_link"/>
	    	<child link="right_gripper_l_link"/>
	    	<origin xyz="0 0.035 -0.11" rpy="0 0 0"/>
	        <axis xyz="1 0 0"/>
	        <limit lower="0" upper="1.0" effort="10" velocity="3"/>
		</joint>
		<joint name="right_grip_r" type="revolute">
	    	<parent link="right_hand_link"/>
	    	<child link="right_gripper_r_link"/>
	    	<origin xyz="0 -0.035 -0.11" rpy="0 0 0"/>
	        <axis xyz="1 0 0"/>
	        <limit lower="-1.0" upper="0" effort="10" velocity="3"/>
		</joint>

		


		<joint name="left_shoulder_forward_joint" type="fixed">
	    	<parent link="torso_link"/>
	    	<child link="left_shoulder_forward_link"/>
	    	<origin xyz="0 0.0752 0.365" rpy="0 0 0"/>
		</joint>

		<joint name="left_shoulder_up_joint" type="fixed">
	    	<parent link="left_shoulder_forward_link"/>
	    	<child link="left_shoulder_up_link"/>
	    	<origin xyz="0 0.0752 -0.045" rpy="0 0 0"/>
	       	
		</joint>

	 	<joint name="left_upper_arm_joint" type="revolute">
	    	<parent link="left_shoulder_up_link"/>
	    	<child link="left_upper_arm_link"/>
	    	<origin xyz="0 0 -0.03" rpy="0 0 0"/>
	    	<limit lower="-1.57" upper="1.57" effort="10" velocity="3"/>
	        <axis xyz="0 0 1"/>
		</joint>
	 	<joint name="left_elbow_joint" type="revolute">
	    	<parent link="left_upper_arm_link"/>
	    	<child link="left_lower_arm_link"/>
	    	<origin xyz="0 0 -0.04" rpy="0 0 0"/>
	    	
	       	<limit lower="-1.57" upper="1.57" effort="10" velocity="3"/>
	        <axis xyz="0 1 0"/>
		</joint>	

	 	<joint name="left_wrist_joint" type="revolute">
	    	<parent link="left_lower_arm_link"/>
	    	<child link="left_lower_arm2_link"/>
	    	<origin xyz="-0.000 0 -0.175" rpy="0 0 0"/>
	    	
	       	<limit lower="-1.57" upper="1.57" effort="10" velocity="3"/>
	        <axis xyz="0 1 0"/>
		</joint>

	 	<joint name="left_wrist_joint2" type="revolute">
	    	<parent link="left_lower_arm2_link"/>
	    	<child link="left_hand_link"/>
	    	<origin xyz="0 0 -0.165" rpy="0 0 0"/>
	       	<limit lower="-1.57" upper="1.57" effort="10" velocity="3"/>
	        <axis xyz="0 1 0"/>
		</joint>
		<joint name="left_hand_dummy1" type="revolute">
	    	<parent link="left_hand_link"/>
	    	<child link="left_hand_dummy1"/>
	    	<origin xyz="0 0 -0.16" rpy="0 0 0"/>
	        <axis xyz="1 0 0"/>
	        <limit lower="-1.57" upper="1.57" effort="10" velocity="3"/>
		</joint>


		<joint name="left_hand_dummy2" type="revolute">
	    	<parent link="left_hand_dummy1"/>
	    	<child link="left_hand_dummy2"/>
	    	<origin xyz="0 0 -0.001" rpy="0 0 0"/>
	        <axis xyz="0 1 0"/>
	        <limit lower="-1.57" upper="1.57" effort="10" velocity="3"/>
		</joint>




		<joint name="right_shoulder_forward_joint" type="fixed">
	    	<parent link="torso_link"/>
	    	<child link="right_shoulder_forward_link"/>
	    	<origin xyz="0 -0.0752 0.365" rpy="0 0 0"/>
	       	<limit lower="-1.57" upper="1.57" effort="10" velocity="3"/>
	        <axis xyz="0 0 1"/>
		</joint>

		<joint name="right_shoulder_up_joint" type="fixed">
	    	<parent link="right_shoulder_forward_link"/>
	    	<child link="right_shoulder_up_link"/>
	    	<origin xyz="0 -0.0752 -0.045" rpy="0 0 0"/>
	       	
		</joint>

	 	





		<joint name="cpu_joint" type="fixed">
	    	<parent link="base_link"/>
	    	<child link="torso_link"/>
	    	<origin xyz="0.00 0 0.465" rpy="0 0 0"/>
		</joint>
		
	  
<!-- 		<joint name="head_pan_servo" type="fixed">
	    	<parent link="torso_link"/>
	    	<child link="head_pan_link"/>
	    	<origin xyz="0 0 0.38" rpy="0 0 0"/>
		</joint>
		
		<joint name="head_pan_joint" type="revolute">
	    	<parent link="head_pan_link"/>
	    	<child link="head_tilt_link"/>
	    	<origin xyz="0 0 0.045" rpy="0 0 0"/>
	    	<axis xyz="0 0 1"/>
	    	<limit lower="-3.1416" upper="3.1416" effort="10" velocity="3"/>
	  	</joint> -->
	  	
<!-- 	 	<joint name="head_tilt_joint" type="revolute">
	    	<parent link="head_tilt_link"/>
	    	<child link="neck_link"/>
	    	<origin xyz="0 0 0.04" rpy="0 0 0"/>
	    	<axis xyz="0 1 0"/>
	    	<limit lower="-1.57" upper="1.57" effort="10" velocity="3"/>
	  	</joint>
	  	
	 	<joint name="neck_joint" type="fixed">
	    	<parent link="neck_link"/>
	    	<child link="head_link"/>
	    	<origin xyz="0.05 0 0.015" rpy="0 0 0"/>
		</joint> -->

		

	 
	</robot>